{
    "Version": "2012-10-17",
    "Statement": [
      {
        "Action": [
          "s3:GetReplicationConfiguration",
          "s3:ListBucket"
        ],
        "Effect": "Allow",
        "Resource": [
          "${this_bucket_arn}"
        ]
      },
      {
        "Action": [
          "s3:GetObjectVersionForReplication",
          "s3:GetObjectVersionAcl",
           "s3:GetObjectVersionTagging"
        ],
        "Effect": "Allow",
        "Resource": [
          "${this_bucket_arn}/*"
        ]
      },
      {
        "Action": [
          "s3:ReplicateObject",
          "s3:ReplicateDelete",
          "s3:ReplicateTags"
        ],
        "Effect": "Allow",
        "Resource": "${destination_bucket_arn}/*"
      }
    ]
  }